<?xml version="1.0" encoding="utf-8"?>
<!-- Generator: Adobe Illustrator 23.0.3, SVG Export Plug-In . SVG Version: 6.00 Build 0)  -->
<svg version="1.1" id="圖層_1" xmlns="http://www.w3.org/2000/svg" xmlns:xlink="http://www.w3.org/1999/xlink" x="0px" y="0px"
	 viewBox="0 0 116.3 98.3" style="enable-background:new 0 0 116.3 98.3;" xml:space="preserve">
<g>
	<path d="M98.2,16c0,8.5-6.9,15.4-15.4,15.4S67.4,24.5,67.4,16S74.3,0.7,82.8,0.7S98.2,7.5,98.2,16z M89.7,13.2h-4.2V9
		c0-1.5-1.2-2.7-2.7-2.7C81.2,6.3,80,7.5,80,9v4.2h-4.2c-1.5,0-2.7,1.2-2.7,2.7c0,1.5,1.2,2.7,2.7,2.7H80v4.2c0,1.5,1.2,2.7,2.7,2.7
		c1.5,0,2.7-1.2,2.7-2.7v-4.2h4.2c1.5,0,2.7-1.2,2.7-2.7C92.4,14.4,91.2,13.2,89.7,13.2z"/>
	<path d="M75.8,50.3H55.6l1-7.9h11.1c2.5,0,4.5-2,4.5-4.5v-1.8c0-2.5-2-4.5-4.5-4.5h-9.7L60,17.2c0.4-2.7-1.5-5.1-4.2-5.5l-1.9-0.3
		c-2.7-0.4-5.1,1.5-5.5,4.2l-4.5,34.6h-21c-2.6,0-4.6,2.1-4.6,4.6v1.9c0,2.6,2.1,4.6,4.6,4.6h19.6l-4,30.5c-0.4,2.7,1.5,5.1,4.2,5.5
		l1.9,0.3c2.7,0.4,5.1-1.5,5.5-4.2l2.4-18.1c3.9,2.7,7.6,5.6,11.1,8.6c1.1,0.8,2.1,1.1,3.2,1.1c1.7,0,3-0.7,4-2.1
		c0.8-0.8,1.3-1.8,1.6-3.3c0.1-1.4-0.4-2.6-1.7-3.5c-3.3-2.8-7.8-5.8-13.5-9c-1.2-0.7-2.4-1.1-3.5-1.2l0.6-4.6h21.6
		c2.6,0,4.6-2.1,4.6-4.6v-1.9C80.4,52.4,78.3,50.3,75.8,50.3z"/>
</g>
</svg>
