<?xml version="1.0" encoding="utf-8"?>
<!-- Generator: Adobe Illustrator 24.0.0, SVG Export Plug-In . SVG Version: 6.00 Build 0)  -->
<svg version="1.1" id="圖層_1" xmlns="http://www.w3.org/2000/svg" xmlns:xlink="http://www.w3.org/1999/xlink" x="0px" y="0px"
	 viewBox="0 0 24 24" style="enable-background:new 0 0 24 24;" xml:space="preserve">
<style type="text/css">
	.st0{fill:#E6F8FF;stroke:#3AA9E1;stroke-width:1.5;stroke-linecap:round;stroke-linejoin:round;}
	.st1{fill:none;stroke:#91C42F;stroke-width:1.5;stroke-linecap:round;stroke-linejoin:round;}
	.st2{fill:none;stroke:#91C42F;stroke-width:1.5;stroke-miterlimit:10;}
</style>
<path class="st0" d="M6,4h12c0,1.7,1.3,3,3,3v10c-1.7,0-3,1.3-3,3H6c0-1.7-1.3-3-3-3V7C4.7,7,6,5.7,6,4z"/>
<line class="st1" x1="14.8" y1="9.2" x2="9.2" y2="14.8"/>
<circle class="st2" cx="9.2" cy="9.2" r="1.5"/>
<circle class="st2" cx="14.8" cy="14.8" r="1.5"/>
</svg>
