<svg version="1.1" id="圖層_2" xmlns="http://www.w3.org/2000/svg" xmlns:xlink="http://www.w3.org/1999/xlink" x="0px"
	y="0px" viewBox="0 0 160 120" style="enable-background:new 0 0 160 120;" xml:space="preserve">
	<style type="text/css">
		.stt0 {fill: url(#SVGID_2_);}
		.stt1 {fill: #CCCCCC;}
		.stt2 {fill: #999999;}
		.stt3 {fill: none;stroke: #E6E6E6;stroke-width: 1.9835;stroke-linejoin: round;stroke-miterlimit: 10;}
		.stt4 {fill: #E6E6E6;}
		.stt5 {fill: none;stroke: #E6E6E6;stroke-width: 3.9669;stroke-linecap: round;stroke-miterlimit: 10;}
		.stt6 {fill: none;stroke: #CCCCCC;stroke-width: 1.3223;stroke-linecap: round;stroke-miterlimit: 10;}
		.stt7 {fill: #2196F3;}
		.stt8 {fill: #FFFFFF;}
		.stt9 {fill: #808080;}
		.wifi {animation: wobble 3s infinite;transform-origin: bottom;}
		@keyframes wobble {0% { transform: rotate(0deg); }10% { transform: rotate(-6deg); }15% { transform: rotate(6deg); }20% { transform: rotate(-3.6deg); }25% { transform: rotate(2.4deg); }30% { transform: rotate(-1.2deg); }35% { transform: rotate(0deg); }}
	</style>
	<g>
		<linearGradient id="SVGID_2_" gradientUnits="userSpaceOnUse" x1="80.45" y1="-1914" x2="80.45" y2="-1878" gradientTransform="matrix(1 0 0 -1 0 -1794)">
			<stop offset="0" style="stop-color:#FFFFFF" />
			<stop offset="1" style="stop-color:#D9D9D9" />
		</linearGradient>
		<path class="stt0" d="M160,120c-14.1-21.3-44.5-36-79.6-36S15,98.7,0.9,120" />
		<ellipse class="stt1" cx="80.7" cy="94.8" rx="15.9" ry="5.3" />
		<path class="stt1" d="M38.7,108.8L38.7,108.8c-1.3,0-2.4-1.1-2.4-2.4v-6.3c0-1.3,1.1-2.4,2.4-2.4l0,0c1.3,0,2.4,1.1,2.4,2.4v6.3C41.1,107.8,40,108.8,38.7,108.8z" />
		<path class="stt2" d="M47.3,92.4c0,7.2-3.8,9.5-8.5,9.5s-8.5-2.3-8.5-9.5s3.8-16.6,8.5-16.6S47.3,85.2,47.3,92.4z" />
		<path class="stt1" d="M122.7,99L122.7,99c-0.8,0-1.5-0.7-1.5-1.5v-4.1c0-0.8,0.7-1.5,1.5-1.5l0,0c0.8,0,1.5,0.7,1.5,1.5v4.1C124.2,98.3,123.5,99,122.7,99z" />
		<path class="stt2" d="M128.2,88.2c0,4.7-2.5,6.2-5.6,6.2s-5.6-1.5-5.6-6.2s2.5-10.8,5.6-10.8C125.7,77.4,128.2,83.5,128.2,88.2z" />
		<circle class="stt1" cx="25.1" cy="45.9" r="5.3" />
		<circle class="stt3" cx="55.5" cy="26.8" r="4.6" />
		<circle class="stt4" cx="136.9" cy="55.8" r="3.3" />
		<circle class="stt1" cx="155.4" cy="46" r="1.3" />
		<circle class="stt1" cx="2" cy="55.8" r="2" />
		<g>
			<line class="stt5" x1="105.8" y1="26.1" x2="113.7" y2="26.1" />
		</g>
		<g>
			<line class="stt5" x1="109.8" y1="22.1" x2="109.8" y2="30.1" />
		</g>
		<line class="stt6" x1="84" y1="3.6" x2="84" y2="5.1" />
		<line class="stt6" x1="81" y1="4.4" x2="81.7" y2="5.7" />
		<line class="stt6" x1="78.8" y1="6.6" x2="80.1" y2="7.3" />
		<line class="stt6" x1="78" y1="9.6" x2="79.5" y2="9.6" />
		<line class="stt6" x1="78.8" y1="12.5" x2="80.1" y2="11.8" />
		<line class="stt6" x1="81" y1="14.7" x2="81.7" y2="13.4" />
		<line class="stt6" x1="84" y1="15.5" x2="84" y2="14" />
		<line class="stt6" x1="86.9" y1="14.7" x2="86.2" y2="13.4" />
		<line class="stt6" x1="89.1" y1="12.5" x2="87.8" y2="11.8" />
		<line class="stt6" x1="89.9" y1="9.6" x2="88.4" y2="9.6" />
		<line class="stt6" x1="89.1" y1="6.6" x2="87.8" y2="7.3" />
		<line class="stt6" x1="86.9" y1="4.4" x2="86.2" y2="5.7" />
	</g>
	<g class="wifi">
		<circle class="stt7" cx="97.9" cy="71" r="10.6" />
		<path class="stt8" d="M97.9,73L97.9,73c-1.1,0-2-0.9-2-2v-5.3c0-1.1,0.9-2,2-2l0,0c1.1,0,2,0.9,2,2V71C99.8,72.1,98.9,73,97.9,73z" />
		<circle class="stt8" cx="97.9" cy="76.3" r="2" />
		<path class="stt9" d="M74.4,77.2l5.2,7.1c0.5,0.7,1.6,0.7,2.1,0l5.2-7.1c0.5-0.6,0.3-1.5-0.4-1.9c-1.7-1-3.8-1.6-5.9-1.6s-4.2,0.6-5.9,1.6C74.1,75.7,73.9,76.6,74.4,77.2z" />
		<path class="stt4" d="M57.8,54.8l3.1,4.3c0.4,0.6,1.2,0.7,1.8,0.3c5.1-3.5,11.3-5.5,17.9-5.5s12.8,2,17.9,5.5c0.6,0.4,1.4,0.3,1.8-0.3l3.1-4.3c0.4-0.6,0.3-1.4-0.3-1.9c-6.4-4.5-14.2-7.1-22.6-7.1s-16.2,2.6-22.6,7.1C57.5,53.3,57.3,54.2,57.8,54.8z" />
		<path class="stt4" d="M89.4,61.7c-2.7-1-5.7-1.6-8.8-1.6c-5.2,0-10,1.6-14,4.2c-0.6,0.4-0.8,1.3-0.4,1.9l3.1,4.3c0.4,0.6,1.2,0.7,1.8,0.3c2.7-1.8,6-2.8,9.5-2.8c1.7,0,3.3,0.2,4.8,0.7C86,66,87.4,63.6,89.4,61.7z" />
	</g>
</svg>